{"name":"Consult list user succesfull","id":"consultuser;consult-list-user-succesfull","testSteps":[{"number":1,"description":"Given I want consult user list of information to service \"https://reqres.in/api/users\"","duration":814,"startTime":"2024-04-25T15:40:48.067-05:00[America/Bogota]","result":"SUCCESS","precondition":false,"level":0},{"number":2,"description":"When I execute service request","duration":1696,"startTime":"2024-04-25T15:40:48.886997300-05:00[America/Bogota]","result":"SUCCESS","reportData":[{"title":"API Response","contents":"{\n    \"page\": 1,\n    \"per_page\": 6,\n    \"total\": 12,\n    \"total_pages\": 2,\n    \"data\": [\n        {\n            \"id\": 1,\n            \"email\": \"george.bluth@reqres.in\",\n            \"first_name\": \"George\",\n            \"last_name\": \"Bluth\",\n            \"avatar\": \"https://reqres.in/img/faces/1-image.jpg\"\n        },\n        {\n            \"id\": 2,\n            \"email\": \"janet.weaver@reqres.in\",\n            \"first_name\": \"Janet\",\n            \"last_name\": \"Weaver\",\n            \"avatar\": \"https://reqres.in/img/faces/2-image.jpg\"\n        },\n        {\n            \"id\": 3,\n            \"email\": \"emma.wong@reqres.in\",\n            \"first_name\": \"Emma\",\n            \"last_name\": \"Wong\",\n            \"avatar\": \"https://reqres.in/img/faces/3-image.jpg\"\n        },\n        {\n            \"id\": 4,\n            \"email\": \"eve.holt@reqres.in\",\n            \"first_name\": \"Eve\",\n            \"last_name\": \"Holt\",\n            \"avatar\": \"https://reqres.in/img/faces/4-image.jpg\"\n        },\n        {\n            \"id\": 5,\n            \"email\": \"charles.morris@reqres.in\",\n            \"first_name\": \"Charles\",\n            \"last_name\": \"Morris\",\n            \"avatar\": \"https://reqres.in/img/faces/5-image.jpg\"\n        },\n        {\n            \"id\": 6,\n            \"email\": \"tracey.ramos@reqres.in\",\n            \"first_name\": \"Tracey\",\n            \"last_name\": \"Ramos\",\n            \"avatar\": \"https://reqres.in/img/faces/6-image.jpg\"\n        }\n    ],\n    \"support\": {\n        \"url\": \"https://reqres.in/#support-heading\",\n        \"text\": \"To keep ReqRes free, contributions towards server costs are appreciated!\"\n    }\n}","isEvidence":false,"id":"report-data-7a165646-07ea-461e-bcd3-90a2d7fb0ac6"}],"precondition":false,"level":0},{"number":3,"description":"Then I validate the code status will \"200\"","duration":7,"startTime":"2024-04-25T15:40:50.584653900-05:00[America/Bogota]","result":"SUCCESS","precondition":false,"level":0}],"userStory":{"id":"consultuser","storyName":"ConsultUser","path":"src/test/resources/in/reqres/testing/features/ListUsers.feature","type":"feature"},"featureTag":{"name":"Features/ConsultUser","type":"feature","displayName":"Features/ConsultUser"},"title":"Consult list user succesfull","tags":[{"name":"ConsultListUser","type":"tag","displayName":"ConsultListUser"}],"startTime":"2024-04-25T15:40:47.987000800-05:00[America/Bogota]","duration":2607,"projectKey":"","isManualTestingUpToDate":false,"manual":false,"testSource":"Cucumber","result":"SUCCESS"}